{
  "db": {
    "name": "db",
    "connector": "memory"
  },
  "mongo": {
    "host": "127.0.0.1",
    "port": "27017",
    "url": "",
    "database": "todo",
    "password": "",
    "name": "mongo",
    "user": "",
    "connector": "mongodb"
  },
  "local_storage": {
    "name": "local_storage",
    "connector": "loopback-component-storage",
    "provider": "filesystem",
    "root": "./server/storage",
    "nameConflict": "makeUnique"
  }
}
