{
  "_meta": {
    "sources": [
      "loopback/common/models",
      "loopback/server/models",
      "../common/models",
      "./models"
    ],
    "mixins": [
      "loopback/common/mixins",
      "loopback/server/mixins",
      "../common/mixins",
      "./mixins",
      "../node_modules/loopback-ds-timestamp-mixin"
    ]
  },
  "User": {
    "dataSource": "mongo",
    "public": false
  },
  "AccessToken": {
    "dataSource": "mongo",
    "public": false
  },
  "ACL": {
    "dataSource": "mongo",
    "public": false
  },
  "RoleMapping": {
    "dataSource": "mongo",
    "public": false,
    "options": {
      "strictObjectIDCoercion": true
    }
  },
  "Role": {
    "dataSource": "mongo",
    "public": false
  },
  "task": {
    "dataSource": "mongo",
    "public": true
  },
  "user": {
    "dataSource": "mongo",
    "public": true
  },
  "container": {
    "dataSource": "local_storage",
    "public": true
  }
}
